<?xml version="1.0" encoding="UTF-8" standalone="no"?>
<!-- Created with Inkscape (http://www.inkscape.org/) -->
<svg
    xmlns:inkscape="http://www.inkscape.org/namespaces/inkscape"
    xmlns:rdf="http://www.w3.org/1999/02/22-rdf-syntax-ns#"
    xmlns="http://www.w3.org/2000/svg"
    xmlns:xlink="http://www.w3.org/1999/xlink"
    xmlns:cc="http://web.resource.org/cc/"
    xmlns:dc="http://purl.org/dc/elements/1.1/"
    xmlns:sodipodi="http://sodipodi.sourceforge.net/DTD/sodipodi-0.dtd"
    xmlns:svg="http://www.w3.org/2000/svg"
    xmlns:ns1="http://sozi.baierouge.fr"
    id="svg1"
    sodipodi:docname="aqua-pill-blue.svg"
    height="104pt"
    sodipodi:version="0.32"
    width="308pt"
    inkscape:version="0.40"
    sodipodi:docbase="/home/bpcomp/Inkscape"
  >
  <defs
      id="defs3"
    >
    <linearGradient
        id="linearGradient1755"
      >
      <stop
          id="stop1756"
          style="stop-color:#0d56db"
          offset="0"
      />
      <stop
          id="stop1757"
          style="stop-color:#061176"
          offset="1"
      />
    </linearGradient
    >
    <linearGradient
        id="linearGradient1686"
        y2="633.04"
        xlink:href="#linearGradient1755"
        gradientUnits="userSpaceOnUse"
        y1="432.17"
        gradientTransform="matrix(1.8001 0 0 .55551 -116.6 -231.05)"
        x2="172.99"
        x1="172.99"
        inkscape:collect="always"
    />
    <linearGradient
        id="linearGradient1754"
        y2="426.26"
        xlink:href="#linearGradient1755"
        gradientUnits="userSpaceOnUse"
        y1="627.57"
        gradientTransform="matrix(1.7847 0 0 .56031 -116.6 -231.05)"
        x2="175.2"
        x1="175.2"
        inkscape:collect="always"
    />
    <linearGradient
        id="linearGradient1762"
        y2="3.6385"
        gradientUnits="userSpaceOnUse"
        y1="93.231"
        gradientTransform="scale(2.0459 .48878)"
        x2="91.27"
        x1="91.27"
        inkscape:collect="always"
      >
      <stop
          id="stop1760"
          style="stop-color:#ffffff;stop-opacity:0"
          offset="0"
      />
      <stop
          id="stop1761"
          style="stop-color:#ffffff"
          offset="1"
      />
    </linearGradient
    >
  </defs
  >
  <sodipodi:namedview
      id="base"
      bordercolor="#666666"
      inkscape:pageshadow="2"
      inkscape:window-width="1276"
      pagecolor="#ffffff"
      inkscape:zoom="0.86831673"
      inkscape:window-x="0"
      borderopacity="1.0"
      inkscape:current-layer="layer1"
      inkscape:cx="173.73576"
      inkscape:cy="22.298666"
      inkscape:window-y="46"
      inkscape:window-height="914"
      inkscape:pageopacity="0.0"
  />
  <g
      id="layer1"
      inkscape:label="Layer 1"
      inkscape:groupmode="layer"
    >
    <g
        id="g5828"
      >
      <rect
          id="rect1061"
          style="stroke-linejoin:round;stroke:url(#linearGradient1686);stroke-linecap:round;stroke-width:6.25;fill:url(#linearGradient1754)"
          rx="57.583"
          ry="56.143"
          height="113.73"
          width="368.53"
          y="7.9564"
          x="8.6374"
      />
      <rect
          id="rect1758"
          style="fill:url(#linearGradient1762)"
          rx="48.225"
          ry="38.806"
          height="80.669"
          width="343.51"
          y="15.607"
          x="21.422"
      />
    </g
    >
  </g
  >
  <metadata
    >
    <rdf:RDF
      >
      <cc:Work
        >
        <dc:format
          >image/svg+xml</dc:format
        >
        <dc:type
            rdf:resource="http://purl.org/dc/dcmitype/StillImage"
        />
        <cc:license
            rdf:resource="http://creativecommons.org/licenses/publicdomain/"
        />
        <dc:publisher
          >
          <cc:Agent
              rdf:about="http://openclipart.org/"
            >
            <dc:title
              >Openclipart</dc:title
            >
          </cc:Agent
          >
        </dc:publisher
        >
        <dc:title
          >Pill Button Blue</dc:title
        >
        <dc:date
          >2006-12-26T00:00:00</dc:date
        >
        <dc:description
        />
        <dc:source
          >https://openclipart.org/detail/26267/-by--26267</dc:source
        >
        <dc:creator
          >
          <cc:Agent
            >
            <dc:title
              >Anonymous</dc:title
            >
          </cc:Agent
          >
        </dc:creator
        >
      </cc:Work
      >
      <cc:License
          rdf:about="http://creativecommons.org/licenses/publicdomain/"
        >
        <cc:permits
            rdf:resource="http://creativecommons.org/ns#Reproduction"
        />
        <cc:permits
            rdf:resource="http://creativecommons.org/ns#Distribution"
        />
        <cc:permits
            rdf:resource="http://creativecommons.org/ns#DerivativeWorks"
        />
      </cc:License
      >
    </rdf:RDF
    >
  </metadata
  >
</svg
>
